\relax 
\providecommand{\transparent@use}[1]{}
\providecommand\hyper@newdestlabel[2]{}
\@nameuse{bbl@beforestart}
\providecommand\HyperFirstAtBeginDocument{\AtBeginDocument}
\HyperFirstAtBeginDocument{\ifx\hyper@anchor\@undefined
\global\let\oldcontentsline\contentsline
\gdef\contentsline#1#2#3#4{\oldcontentsline{#1}{#2}{#3}}
\global\let\oldnewlabel\newlabel
\gdef\newlabel#1#2{\newlabelxx{#1}#2}
\gdef\newlabelxx#1#2#3#4#5#6{\oldnewlabel{#1}{{#2}{#3}}}
\AtEndDocument{\ifx\hyper@anchor\@undefined
\let\contentsline\oldcontentsline
\let\newlabel\oldnewlabel
\fi}
\fi}
\global\let\hyper@last\relax 
\gdef\HyperFirstAtBeginDocument#1{#1}
\providecommand\HyField@AuxAddToFields[1]{}
\providecommand\HyField@AuxAddToCoFields[2]{}
\citation{mobilenet}
\citation{squeezenet}
\citation{alexnet}
\citation{shufflenet}
\citation{alexnet}
\citation{mobilenetgit}
\citation{MobileNetv2}
\babel@aux{english}{}
\@writefile{toc}{\contentsline {section}{\numberline {I}Introduction}{1}{section.1}\protected@file@percent }
\@writefile{toc}{\contentsline {section}{\numberline {II}Methodology}{1}{section.2}\protected@file@percent }
\@writefile{toc}{\contentsline {subsection}{\numberline {\mbox  {II-A}}MobileNet}{1}{subsection.2.1}\protected@file@percent }
\@writefile{lof}{\contentsline {figure}{\numberline {1}{\ignorespaces MobileNet structure\relax }}{1}{figure.caption.1}\protected@file@percent }
\providecommand*\caption@xref[2]{\@setref\relax\@undefined{#1}}
\newlabel{fig:mobilenetarchitecture}{{1}{1}{MobileNet structure\relax }{figure.caption.1}{}}
\@writefile{toc}{\contentsline {subsection}{\numberline {\mbox  {II-B}}SqueezeNet}{1}{subsection.2.2}\protected@file@percent }
\@writefile{toc}{\contentsline {subsection}{\numberline {\mbox  {II-C}}ShuffleNet}{1}{subsection.2.3}\protected@file@percent }
\@writefile{lof}{\contentsline {figure}{\numberline {2}{\ignorespaces A representation of a ShuffleNet unit.\relax }}{1}{figure.caption.2}\protected@file@percent }
\newlabel{fig:shufflenetunit}{{2}{1}{A representation of a ShuffleNet unit.\relax }{figure.caption.2}{}}
\@writefile{toc}{\contentsline {section}{\numberline {III}Results}{1}{section.3}\protected@file@percent }
\@writefile{toc}{\contentsline {subsection}{\numberline {\mbox  {III-A}}Model evaluation}{1}{subsection.3.1}\protected@file@percent }
\@writefile{toc}{\contentsline {subsubsection}{\numberline {\mbox  {III-A}1}MobileNet}{1}{subsubsection.3.1.1}\protected@file@percent }
\bibstyle{IEEEtran}
\bibdata{bibliography}
\bibcite{mobilenet}{1}
\bibcite{squeezenet}{2}
\bibcite{alexnet}{3}
\bibcite{shufflenet}{4}
\bibcite{mobilenetgit}{5}
\bibcite{MobileNetv2}{6}
\@writefile{lof}{\contentsline {figure}{\numberline {3}{\ignorespaces The accuracy of MobileNet with regards to the number of epochs.\relax }}{2}{figure.caption.3}\protected@file@percent }
\newlabel{fig:mobilenetacc}{{3}{2}{The accuracy of MobileNet with regards to the number of epochs.\relax }{figure.caption.3}{}}
\@writefile{toc}{\contentsline {subsubsection}{\numberline {\mbox  {III-A}2}SqueezeNet}{2}{subsubsection.3.1.2}\protected@file@percent }
\@writefile{lot}{\contentsline {table}{\numberline {I}{\ignorespaces Accuracy with regard to number of epochs\relax }}{2}{table.caption.4}\protected@file@percent }
\newlabel{tab:table1}{{I}{2}{Accuracy with regard to number of epochs\relax }{table.caption.4}{}}
\@writefile{toc}{\contentsline {subsubsection}{\numberline {\mbox  {III-A}3}ShuffleNet}{2}{subsubsection.3.1.3}\protected@file@percent }
\@writefile{lot}{\contentsline {table}{\numberline {II}{\ignorespaces Accuracy with regard to number of epochs\relax }}{2}{table.caption.5}\protected@file@percent }
\newlabel{tab:table2}{{II}{2}{Accuracy with regard to number of epochs\relax }{table.caption.5}{}}
\@writefile{toc}{\contentsline {section}{\numberline {IV}Share of Work}{2}{section.4}\protected@file@percent }
\@writefile{toc}{\contentsline {subsection}{\numberline {\mbox  {IV-A}}Domen Po\IeC {\v z}rl}{2}{subsection.4.1}\protected@file@percent }
\@writefile{toc}{\contentsline {subsection}{\numberline {\mbox  {IV-B}}Tadej Vatovani}{2}{subsection.4.2}\protected@file@percent }
\@writefile{toc}{\contentsline {subsection}{\numberline {\mbox  {IV-C}}Jovan Toroman}{2}{subsection.4.3}\protected@file@percent }
\@writefile{toc}{\contentsline {section}{\numberline {V}Conclusion}{2}{section.5}\protected@file@percent }
\@writefile{toc}{\contentsline {section}{References}{2}{section*.6}\protected@file@percent }
