val_loss,val_acc,loss,acc
12.262010229958427,0.041666666666666664,3.436494287200596,0.06956521739130435
6.437784999820358,0.05673758865248227,3.0503139786098314,0.1
6.480846418556592,0.10638297872340426,2.9557866023934407,0.11521739130434783
3.909750962088294,0.1347517730496454,2.8732948458713032,0.11956521739130435
4.328898115360991,0.09219858156028368,2.818997077319933,0.11304347826086956
3.057511160559688,0.14893617021276595,2.749030377553857,0.11521739130434783
3.2641911067015736,0.14184397163120568,2.709581431098606,0.11739130434782609
3.431584562815673,0.09929078014184398,2.70996776352758,0.12173913043478261
4.143152402647844,0.12056737588652482,2.6772987987684167,0.14565217391304347
3.0910126571114183,0.1276595744680851,2.67534804655158,0.12391304347826088
2.650613137170778,0.2127659574468085,2.5917317494102146,0.14130434782608695
3.315156287335335,0.1702127659574468,2.5744100384090256,0.15217391304347827
3.499065859097961,0.12056737588652482,2.6717078540636146,0.13260869565217392
2.4382644105464855,0.24113475177304963,2.5811894147292427,0.14130434782608695
3.4780965629198874,0.14184397163120568,2.4788444456846817,0.1956521739130435
2.9559398906450745,0.12056737588652482,2.4701742286267487,0.20869565217391303
4.800523194860904,0.09219858156028368,2.501728565796562,0.1782608695652174
2.7418923851446055,0.2127659574468085,2.517779532722805,0.17173913043478262
2.753156093840903,0.20567375886524822,2.485908523849819,0.18695652173913044
2.5760728704168443,0.23404255319148937,2.5194728343383126,0.2
2.463179038771501,0.23404255319148937,2.4190738636514415,0.2326086956521739
3.0076913191071637,0.2553191489361702,2.344867885631064,0.24130434782608695
2.3873896294451775,0.24822695035460993,2.4483568004939866,0.1826086956521739
2.5604993288821363,0.20567375886524822,2.463928414427716,0.2217391304347826
2.8291946928551854,0.2907801418439716,2.367663309885108,0.2108695652173913
2.815740161753715,0.1702127659574468,2.366923921004586,0.2217391304347826
2.791015058544511,0.19148936170212766,2.371518631603407,0.20869565217391303
2.6439819276755583,0.1702127659574468,2.3381454156792683,0.21304347826086956
2.717238353499284,0.2624113475177305,2.3962709489076035,0.2217391304347826
2.8245549472511238,0.1347517730496454,2.4363913992176887,0.18695652173913044
2.363186126059674,0.2695035460992908,2.310732270323712,0.23043478260869565
2.586498740717029,0.20567375886524822,2.3144671761471294,0.22826086956521738
2.424461371509741,0.2765957446808511,2.2978199222813482,0.24565217391304348
2.7524938498828426,0.19858156028368795,2.3350358693496043,0.22826086956521738
2.7894385182265693,0.2127659574468085,2.300857817608377,0.22608695652173913
2.557686579142902,0.2127659574468085,2.306125861665477,0.21739130434782608
2.6967848378715784,0.2765957446808511,2.1901729728864585,0.2326086956521739
2.5519626339276633,0.2152777777777778,2.1937001342358795,0.24347826086956523
2.7906716174267707,0.20567375886524822,2.2572046393933505,0.2391304347826087
2.514120548329455,0.2553191489361702,2.2901581805685294,0.24782608695652175
2.1291028937549457,0.3191489361702128,2.2492575002753217,0.24782608695652175
2.113847040960975,0.2907801418439716,2.137793955595597,0.26956521739130435
1.9969577282033069,0.2978723404255319,2.2006812002347864,0.2673913043478261
2.504739928752818,0.3475177304964539,2.1889718190483425,0.2717391304347826
2.2457076057474663,0.28368794326241137,2.1181521322416224,0.29782608695652174
2.13932037691698,0.28368794326241137,2.2268729976985764,0.2543478260869565
2.1759529823952533,0.2978723404255319,2.1643041289370992,0.2565217391304348
2.983647481769535,0.19858156028368795,2.1946304227994835,0.25217391304347825
2.1535347387300314,0.3404255319148936,2.190482895270638,0.2782608695652174
2.6325257331766982,0.18439716312056736,2.172876264738,0.28695652173913044
2.200153524148549,0.2978723404255319,2.120213512752367,0.29347826086956524
1.9648881043102724,0.3191489361702128,2.105102891507356,0.30869565217391304
2.812680463207529,0.19858156028368795,2.1394160084102465,0.30217391304347824
2.5981200941910982,0.20567375886524822,2.084571983503259,0.29782608695652174
2.019337462195268,0.3262411347517731,2.038302703525709,0.3108695652173913
2.5963946893705545,0.3049645390070922,2.007700096005979,0.32608695652173914
2.0059254482282816,0.3546099290780142,2.074309902605803,0.3065217391304348
2.177291862508084,0.3404255319148936,2.0543039995691053,0.30217391304347824
2.1829932902721647,0.2624113475177305,2.023273895616117,0.3
1.9591250508389575,0.3829787234042553,2.0465698345847754,0.3065217391304348
2.2676980427816407,0.3546099290780142,1.9785566215929777,0.3282608695652174
2.3222075032849685,0.3120567375886525,2.0658727365991343,0.29347826086956524
2.3831530675401,0.2765957446808511,1.9622567093890646,0.3173913043478261
1.9294104649031416,0.3404255319148936,2.06175451486007,0.3130434782608696
2.006731076866177,0.28368794326241137,1.9668109302935393,0.31956521739130433
2.829384665117196,0.24113475177304963,2.0327961631443188,0.29130434782608694
2.053475878762861,0.41134751773049644,1.9744979894679526,0.32608695652173914
2.036701685676338,0.3404255319148936,1.9258795251017031,0.33260869565217394
2.6218899310903345,0.3191489361702128,2.021577569194462,0.31956521739130433
2.460073436405642,0.2978723404255319,1.902955062493034,0.35
2.0166321270009306,0.3900709219858156,1.988396980451501,0.34130434782608693
1.8372202790375296,0.3900709219858156,1.898578419374383,0.34130434782608693
2.247678462072467,0.3049645390070922,1.8424403392750284,0.3782608695652174
1.7942712213976164,0.3971631205673759,1.860052386055822,0.3804347826086957
2.378950513071484,0.2777777777777778,1.9193972634232563,0.34130434782608693
2.3517628020428596,0.2765957446808511,1.908848472263502,0.3347826086956522
1.9387134710947673,0.41843971631205673,1.8559974494187728,0.3804347826086957
1.9931057902938085,0.3262411347517731,1.8172618446142776,0.3521739130434783
2.210917190879795,0.3546099290780142,1.8925100741179093,0.3391304347826087
2.2060856176606305,0.3191489361702128,1.8235748327296712,0.3847826086956522
1.8695336982924888,0.425531914893617,1.8371207257975704,0.3760869565217391
3.061888593308469,0.2553191489361702,1.8631999793259995,0.3673913043478261
2.179571156806134,0.375886524822695,1.7983403293982796,0.391304347826087
1.7260974265159446,0.425531914893617,1.7676005907680676,0.4260869565217391
2.3744501365837474,0.3333333333333333,1.828138746385989,0.40652173913043477
2.236229269217092,0.36879432624113473,1.7456620200820592,0.39565217391304347
2.433767482532677,0.23404255319148937,1.7409116905668507,0.41304347826086957
1.8217637877092294,0.41134751773049644,1.8541548034419184,0.36086956521739133
2.3350309615439557,0.3829787234042553,1.764561264929564,0.3782608695652174
1.8740732500739132,0.3617021276595745,1.8793716487677201,0.3695652173913043
2.0133683394033013,0.3404255319148936,1.7214889236118482,0.3978260869565217
2.1470051488132342,0.3900709219858156,1.7491685882858607,0.38913043478260867
2.0227731474747896,0.3617021276595745,1.7704825603443644,0.3978260869565217
2.85859367187987,0.2978723404255319,1.7588461383529332,0.3934782608695652
1.6995335639791285,0.5035460992907801,1.6754177762114484,0.4326086956521739
1.9014018008894955,0.41134751773049644,1.7521239664243615,0.40869565217391307
1.623537115171446,0.425531914893617,1.7206355084543643,0.40217391304347827
1.604445183530767,0.475177304964539,1.7074872187946153,0.44565217391304346
1.921515626264802,0.45390070921985815,1.6436919217524322,0.45217391304347826
1.7029348964809525,0.44680851063829785,1.7205616681472116,0.4108695652173913
1.9166870966342324,0.375886524822695,1.7047454121320145,0.41956521739130437
2.5764604789462497,0.375886524822695,1.6163332669631294,0.45217391304347826
2.0526783593157503,0.375886524822695,1.668277828330579,0.4369565217391304
1.8315906609203798,0.3900709219858156,1.6248466870059137,0.43043478260869567
2.1552620982447412,0.2907801418439716,1.6585935488991115,0.4108695652173913
1.9474168855247769,0.41134751773049644,1.6446639162042866,0.45
1.7247123988807624,0.48936170212765956,1.599723872412806,0.44130434782608696
2.2364827952486404,0.3404255319148936,1.587752575200537,0.4652173913043478
2.212250161678233,0.3617021276595745,1.5818734008332958,0.44782608695652176
1.831796478717885,0.41134751773049644,1.5253877642362015,0.4826086956521739
1.8982306381700733,0.3900709219858156,1.5420499226321345,0.4717391304347826
2.2109077274799347,0.4375,1.5872662199580152,0.4717391304347826
2.0539663429801345,0.4326241134751773,1.4972410432670427,0.46304347826086956
1.9242045253726607,0.45390070921985815,1.551046996012978,0.46956521739130436
2.1609757225564183,0.3333333333333333,1.6267573335896368,0.4608695652173913
2.8629404957412827,0.3120567375886525,1.6355382134085117,0.44130434782608696
1.7055290633059563,0.44680851063829785,1.5757808172184489,0.4434782608695652
2.8098081033280553,0.3120567375886525,1.5979537761729696,0.44565217391304346
2.4346141696821713,0.3049645390070922,1.568227869272232,0.4717391304347826
1.685704418107973,0.4397163120567376,1.571326832667641,0.4673913043478261
1.7176246315452224,0.46099290780141844,1.5147491040437118,0.5173913043478261
1.8411037169449718,0.40425531914893614,1.5577754507894102,0.47391304347826085
2.149171994933,0.46099290780141844,1.4207534598267597,0.4891304347826087
2.3014864653137557,0.3475177304964539,1.4368973903034044,0.508695652173913
1.9381630737730797,0.5106382978723404,1.482774479881577,0.49782608695652175
1.9729467393658686,0.3829787234042553,1.5716157050236412,0.4717391304347826
2.5559257302723877,0.3900709219858156,1.447570884746054,0.5173913043478261
1.5675246910000524,0.5106382978723404,1.4749023927294689,0.4826086956521739
1.8103121561361544,0.5177304964539007,1.4318146189917689,0.47608695652173916
1.766905465870039,0.5177304964539007,1.4998884815236797,0.49130434782608695
1.6836557460169421,0.5460992907801419,1.4250121305818144,0.5130434782608696
2.1842790732147,0.3900709219858156,1.4164648608021113,0.5
1.67989078819329,0.5460992907801419,1.4482999493246493,0.49782608695652175
2.19294905577991,0.425531914893617,1.3633309635131254,0.5347826086956522
2.152030848230876,0.375886524822695,1.4125906454480213,0.5065217391304347
1.7505593029319817,0.49645390070921985,1.398096245268117,0.5108695652173914
2.1919650997675904,0.425531914893617,1.492017110016035,0.47391304347826085
2.1655813392172467,0.40425531914893614,1.3784066138060196,0.5173913043478261
1.7142471589729296,0.5106382978723404,1.3969306041365084,0.5130434782608696
2.3030689895575773,0.3191489361702128,1.3967061460018158,0.5195652173913043
1.8726746782343437,0.425531914893617,1.4073984413043312,0.5260869565217391
2.0791750579861037,0.3971631205673759,1.3989054596942403,0.532608695652174
2.189977954088955,0.3617021276595745,1.4179672702499058,0.5108695652173914
1.9839020548982824,0.48226950354609927,1.348970646313999,0.5130434782608696
2.0908902807438627,0.46808510638297873,1.3236314562351807,0.55
1.8761729324593188,0.45390070921985815,1.3475333042766737,0.5173913043478261
2.2818901543076158,0.4326241134751773,1.3655968400447265,0.5456521739130434
2.028314292060991,0.475177304964539,1.3818700243597446,0.5130434782608696
1.7044287083877458,0.5138888888888888,1.3523073664178018,0.5369565217391304
1.9665375495633335,0.48936170212765956,1.2961705697619397,0.5565217391304348
1.765157513161923,0.48936170212765956,1.2758046888786814,0.5543478260869565
1.8119542620917584,0.49645390070921985,1.3614736816157464,0.5478260869565217
1.8519036144229537,0.46099290780141844,1.256790025078732,0.5869565217391305
2.1633140656119543,0.45390070921985815,1.3533232157645019,0.5347826086956522
1.7883194532800228,0.46099290780141844,1.2638619421616843,0.5978260869565217
2.00186776100321,0.3546099290780142,1.302931364722874,0.5391304347826087
1.6394418089102345,0.5106382978723404,1.30784906550594,0.5391304347826087
1.640899916912647,0.5177304964539007,1.254981390548789,0.5521739130434783
2.1917285868462097,0.41134751773049644,1.268580740949382,0.5630434782608695
1.576368749987149,0.5531914893617021,1.3559934413951376,0.5369565217391304
1.9633911002612283,0.41843971631205673,1.2959449727898058,0.55
1.6982574758800209,0.5106382978723404,1.2454277555579725,0.5782608695652174
2.0232401519802443,0.46808510638297873,1.2515655621238377,0.5826086956521739
2.0311784976763083,0.3617021276595745,1.3216436964014302,0.5478260869565217
1.8042776007601555,0.48226950354609927,1.1912125263525093,0.6
1.6947339358904683,0.5035460992907801,1.2626972686985265,0.5934782608695652
2.121375324032831,0.3829787234042553,1.3020594114842623,0.591304347826087
1.727190523282856,0.49645390070921985,1.2145145486230435,0.5869565217391305
2.471644322077433,0.40425531914893614,1.2087562954944113,0.5652173913043478
1.6081621134851842,0.524822695035461,1.2976080227157345,0.558695652173913
1.557431864400282,0.5106382978723404,1.237223156897918,0.5673913043478261
1.7613844499520377,0.425531914893617,1.1921737217384836,0.6
2.249415013384312,0.46808510638297873,1.3705107686312303,0.532608695652174
1.9307387044243778,0.4397163120567376,1.234339572035748,0.5760869565217391
1.831310546989982,0.475177304964539,1.127685095693754,0.6108695652173913
1.7703801004599171,0.425531914893617,1.191652749090091,0.5673913043478261
2.082169421598421,0.45390070921985815,1.215223123975422,0.5978260869565217
1.8007583093981372,0.5815602836879432,1.1402659199807954,0.6130434782608696
1.7896304012190365,0.46099290780141844,1.2523417238308037,0.5565217391304348
1.6965861227495451,0.5035460992907801,1.2200346784747165,0.5934782608695652
2.4202284850972764,0.48936170212765956,1.2379204203253207,0.5847826086956521
1.9385995535144664,0.48936170212765956,1.18299506202988,0.6
1.7250738279193851,0.524822695035461,1.2032415833162224,0.6086956521739131
2.10506020919651,0.4326241134751773,1.163079136610031,0.6130434782608696
1.9746239641879468,0.475177304964539,1.1044954775468163,0.6326086956521739
1.8559810279144182,0.5277777777777778,1.1348709545705629,0.6239130434782608
2.0350916013650013,0.4397163120567376,1.1596550918143729,0.6065217391304348
1.7989741429580863,0.5035460992907801,1.1476793920216353,0.6
2.1800541928473938,0.425531914893617,1.1448239900495696,0.6086956521739131
1.8719443881835505,0.5106382978723404,1.1856447981751483,0.6108695652173913
1.949959212055443,0.5177304964539007,1.1096514280723488,0.6239130434782608
1.837142102261807,0.5531914893617021,1.1833241600057354,0.5847826086956521
2.244739038724426,0.49645390070921985,1.1331993647243666,0.6
1.6326295657360808,0.5673758865248227,1.1751468978498294,0.5869565217391305
1.9344534239870437,0.5390070921985816,1.0862498129191607,0.6413043478260869
2.194555811848201,0.44680851063829785,1.0894589113152546,0.6043478260869565
1.7967288056586652,0.5319148936170213,1.061286754063938,0.6282608695652174
2.256601725909727,0.48936170212765956,1.13408054916755,0.6
1.6583316175016105,0.5673758865248227,1.0689231399608694,0.6652173913043479
2.2350209951400757,0.3971631205673759,1.0997182413287785,0.6086956521739131
1.9692266976579706,0.5319148936170213,1.0514448710109876,0.6282608695652174
1.8403183548891435,0.46808510638297873,1.0530041764611784,0.6565217391304348
1.6888731563767643,0.6170212765957447,1.0904627875141475,0.6543478260869565
1.9691699286724658,0.44680851063829785,1.063744714985723,0.65
2.0411154282219868,0.5390070921985816,1.006746610675169,0.6673913043478261
1.6557401059367132,0.5531914893617021,1.0467923143635625,0.6152173913043478
2.1914131315887397,0.41843971631205673,0.9796346055424732,0.6434782608695652
1.4528974971687751,0.5815602836879432,1.0306097548293032,0.6239130434782608
1.8657740979510729,0.475177304964539,0.9687990168514459,0.65
2.1531040786851383,0.5460992907801419,1.094215701358474,0.6195652173913043
1.7866881434799087,0.5035460992907801,1.0330143297819987,0.6521739130434783
1.610863798053552,0.5957446808510638,1.0806024971863497,0.6608695652173913
1.6279458923542753,0.5531914893617021,1.0363184760446134,0.65
1.6948406828025766,0.5106382978723404,1.0937109588280969,0.6413043478260869
1.6967312266640628,0.48226950354609927,1.041300532804883,0.65
1.6804719123434513,0.5319148936170213,0.9748790153342745,0.6543478260869565
1.9070617510071883,0.45390070921985815,0.9468793152467064,0.6673913043478261
1.8573815311100466,0.49645390070921985,0.9992112219333649,0.6630434782608695
1.891221375435802,0.5390070921985816,0.962107256848527,0.6543478260869565
1.585064414122426,0.574468085106383,0.9482393389810686,0.6869565217391305
1.8961037025384024,0.48936170212765956,1.0545647670393405,0.6239130434782608
1.6187340494588758,0.5673758865248227,1.0236715954283009,0.6630434782608695
1.8772195373765297,0.5694444444444444,0.9955534048702406,0.6456521739130435
1.5747893814076768,0.5815602836879432,0.9396119993989882,0.6956521739130435
1.929963970015235,0.5673758865248227,0.9894893384498099,0.6478260869565218
1.6736515084056989,0.5673758865248227,0.9261265577667434,0.691304347826087
1.765734317877614,0.5460992907801419,1.0462527907251016,0.6543478260869565
1.63476902500112,0.48936170212765956,0.9461302386029907,0.658695652173913
1.7725656281971762,0.524822695035461,0.967827338045058,0.6804347826086956
1.8404418668967295,0.48936170212765956,0.9784727216414784,0.6956521739130435
1.9734599945393014,0.5035460992907801,0.9690805617557919,0.7
2.268947516772764,0.49645390070921985,0.9339679535964261,0.7021739130434783
2.0733027021228896,0.5460992907801419,0.8972594701725504,0.6978260869565217
2.0588992867909424,0.49645390070921985,1.014510044520316,0.6565217391304348
1.807060680913587,0.524822695035461,0.9720545781371386,0.6413043478260869
2.46600478887558,0.41843971631205673,1.0156137777087482,0.6565217391304348
1.6578285654029208,0.5602836879432624,1.0087546307107678,0.6695652173913044
2.1660085011881294,0.574468085106383,0.9423089351505041,0.6804347826086956
1.9459504163857047,0.5106382978723404,0.9216885971958223,0.6826086956521739
1.8413946996343897,0.5957446808510638,0.884507670285909,0.6956521739130435
1.860011620301727,0.5886524822695035,0.8838808073945668,0.6956521739130435
1.7793791427821746,0.475177304964539,0.8458582755016244,0.7065217391304348
2.58604666611827,0.425531914893617,0.9363532855458881,0.6804347826086956
1.9131888510487605,0.5390070921985816,0.8420315093968226,0.7152173913043478
1.5354219742700563,0.5531914893617021,0.8471937719246615,0.7021739130434783
1.8490188095639362,0.5035460992907801,0.7910927823704222,0.7086956521739131
1.8074080965197679,0.5886524822695035,0.9418690673683001,0.6760869565217391
1.9421422935176826,0.48936170212765956,0.8299234755661177,0.6869565217391305
1.9873294263866776,0.4326241134751773,0.9130157077442045,0.6869565217391305
1.9766908448638645,0.49645390070921985,0.7935513636988142,0.7086956521739131
1.5200161917914523,0.5815602836879432,0.923719353131626,0.6826086956521739
2.279274789154107,0.5106382978723404,0.8454776213220928,0.7021739130434783
1.3750199675559998,0.6170212765957447,0.8794908333731735,0.7
1.7788027643311954,0.5531914893617021,0.8777477419732705,0.717391304347826
1.9644553715508457,0.48936170212765956,0.8602870543365894,0.7152173913043478
1.7224678196911272,0.5531914893617021,0.8608607397131298,0.7043478260869566
1.7600305308866502,0.5815602836879432,0.7617207067330246,0.7565217391304347
1.7018159139663616,0.5390070921985816,0.8028136664758558,0.7282608695652174
1.6785937374365245,0.5957446808510638,0.7660626731165078,0.7543478260869565
1.7880796539441992,0.5486111111111112,0.8791339665084429,0.7130434782608696
1.9962498348252518,0.5673758865248227,0.7772559911336587,0.7347826086956522
2.195617732955209,0.5035460992907801,0.844792753101691,0.7108695652173913
1.8472229656816526,0.5319148936170213,0.8156353576675706,0.7108695652173913
1.8927207820593042,0.5815602836879432,0.7692835582015307,0.7326086956521739
2.1450640914287975,0.5106382978723404,0.803155512654263,0.7434782608695653
1.85870106380882,0.5602836879432624,0.8372293226744818,0.7
2.0880705244997713,0.5531914893617021,0.8738823376919912,0.6869565217391305
1.9591474653030119,0.524822695035461,0.7730985290978266,0.7260869565217392
1.8794277669954385,0.5815602836879432,0.8104327791410944,0.6978260869565217
2.125060038786408,0.5673758865248227,0.878490882302108,0.7065217391304348
1.6756537349742724,0.5177304964539007,0.9249699548534726,0.6869565217391305
1.6920617159376754,0.5177304964539007,0.8004642507304316,0.7282608695652174
1.7446253705531993,0.574468085106383,0.7453221757774767,0.75
1.6058280704714727,0.5815602836879432,0.6963217051173358,0.741304347826087
2.2949453808420093,0.5106382978723404,0.7648920870183603,0.7521739130434782
1.7636525312848126,0.5177304964539007,0.8506117647756701,0.7195652173913043
2.169178911567342,0.49645390070921985,0.7296407624917186,0.7391304347826086
1.6761271843673489,0.574468085106383,0.7419073029704716,0.741304347826087
1.7014451227712293,0.5815602836879432,0.8489281808228596,0.7195652173913043
2.0582152118919588,0.5602836879432624,0.7937765531565832,0.7369565217391304
1.7782391392170114,0.6099290780141844,0.6899881920088893,0.7869565217391304
1.7687148115736373,0.5531914893617021,0.7800134694770626,0.7282608695652174
1.6113014867965212,0.5957446808510638,0.7302925995834496,0.7456521739130435
1.879336582219347,0.5177304964539007,0.7840427051743736,0.7282608695652174
1.752148101770101,0.5602836879432624,0.8133174939000088,0.7260869565217392
1.5763283482363037,0.5815602836879432,0.7509109185765619,0.7695652173913043
1.903489056314137,0.574468085106383,0.7342042703343474,0.7326086956521739
1.9960541522287447,0.48226950354609927,0.7792314225564833,0.7304347826086957
2.141430442465852,0.49645390070921985,0.7787585899557756,0.75
2.0088286617546216,0.5602836879432624,0.8230291409984879,0.7195652173913043
1.8705402845186545,0.46808510638297873,0.670812944225643,0.7695652173913043
1.6215786236661969,0.574468085106383,0.669142526841682,0.7804347826086957
1.782174888628383,0.5673758865248227,0.7582351813821689,0.7369565217391304
1.6211813940748767,0.6170212765957447,0.7073460556809669,0.7739130434782608
1.6911359556904393,0.5815602836879432,0.6428871319345806,0.7782608695652173
1.8135064799629204,0.524822695035461,0.754743298985388,0.7521739130434782
1.9946398250758648,0.5625,0.707255974865478,0.758695652173913
1.7038506439933223,0.574468085106383,0.6795992035256779,0.782608695652174
1.4265974657358238,0.6312056737588653,0.8079263271197029,0.7260869565217392
1.670943840108366,0.6170212765957447,0.7687198904059503,0.7543478260869565
